<background>
images/background.png
</background>

<tiles>
@
!
Z
g
h
/
\
<
>
a
b
c
d
e
f
A
B
C
D
E
F
G
H
</tiles>

<enemies>
1
2
3
4
5
</enemies>

<goodies>
o
</goodies>

<map>
                                                                                          
                                                                                          
                                  o                         2                o o o        
                                  o      oo               oooooo            o o o o       
                                  o     o  o         oo                                   
                                    @e@@                  @f@@f@     ooo                  
                            3    fef          2                           @@ffee@@e       
/\  ff         /\           /\                       /\                                   
<>             <>           <>             !!        <>           /\                    AB
<>          5  <>  1    4   <>         5   ZZ        <>     1     <>     !!     1       CD
!!!!!!!!!!!!!!!!!!!!!!!!!!!!!!!!!!!!!!!!!!!ZZ       !!!!!!!!!!!!!!!!!    ZZ!!!!!!!!!!!!!!!
ZZZZZZZZZZZZZZZZZZZZZZZZZZZZZZZZZZZZZZZZZZZZZ   !!!!ZZZZZZZZZZZZZZZZZ    ZZZZZZZZZZZZZZZZZ
</map>

<entrance>
maps/submap1.txt
V
28
7
V
53
7
</entrance>

<nextlevel>
V
88
8
</nextlevel>